,"Meta-MARC","DeepARG","AMRpp","k-mers","metafeatures"
"Meta-MARC",1,0.76768125461383,0.592623059597498,0.0451516367332378,0.038113886269099
"DeepARG",0.76768125461383,1,0.725232074247753,0.057088165409642,0.0464535900353484
"AMRpp",0.592623059597498,0.725232074247753,1,0.0577589031495393,0.040221945543732
"k-mers",0.0451516367332378,0.057088165409642,0.0577589031495393,1,0.119397652636913
"metafeatures",0.038113886269099,0.0464535900353484,0.040221945543732,0.119397652636913,1
