Cluster resolution;Space weight;Coefficient of variation
0.6;0;0.4519545
0.6;0.25;0.4209785
0.6;0.5;0.3290842
0.6;0.75;0.3677835
0.6;1;0.4297633
0.8;0;0.5527717
0.8;0.25;0.3930342
0.8;0.5;0.4158856
0.8;0.75;0.4875954
0.8;1;0.4592522
1;0;0.3603436
1;0.25;0.3877423
1;0.5;0.3336697
1;0.75;0.3422836
1;1;0.5034228
1.45;0.19;0.47
