...1,time,status,age,sex,ph.ecog,ph.karno,pat.karno,meal.cal,wt.loss
1,306,1,74,1,1,90,100,1175,15
2,455,1,68,1,0,90,90,1225,15
3,1010,0,56,1,0,90,90,1025,15
4,210,1,57,1,1,90,60,1150,11
5,883,1,60,1,0,100,90,1225,0
6,1022,0,74,1,1,50,80,513,0
7,310,1,68,2,2,70,60,384,10
8,361,1,71,2,2,60,80,538,1
9,218,1,53,1,1,70,80,825,16
10,166,1,61,1,2,70,70,271,34
11,170,1,57,1,1,80,80,1025,27
12,654,1,68,2,2,70,70,280,23
13,728,1,68,2,1,90,90,1175,5
14,71,1,60,1,2,60,70,1225,32
15,567,1,57,1,1,80,70,2600,60
16,144,1,67,1,1,80,90,1175,15
17,613,1,70,1,1,90,100,1150,-5
18,707,1,63,1,2,50,70,1025,22
19,61,1,56,2,2,60,60,238,10
20,88,1,57,1,1,90,80,1175,11
21,301,1,67,1,1,80,80,1025,17
22,81,1,49,2,0,100,70,1175,-8
23,624,1,50,1,1,70,80,1175,16
24,371,1,58,1,0,90,100,975,13
25,394,1,72,1,0,90,80,1075,0
26,520,1,70,2,1,90,80,825,6
27,574,1,60,1,0,100,100,1025,-13
28,118,1,70,1,3,60,70,1075,20
29,390,1,53,1,1,80,70,875,-7
30,12,1,74,1,2,70,50,305,20
31,473,1,69,2,1,90,90,1025,-1
32,26,1,73,1,2,60,70,388,20
33,533,1,48,1,2,60,80,1025,-11
34,107,1,60,2,2,50,60,925,-15
35,53,1,61,1,2,70,100,1075,10
36,122,1,62,2,2,50,50,1025,-5
37,814,1,65,1,2,70,60,513,28
38,965,0,66,2,1,70,90,875,4
39,93,1,74,1,2,50,40,1225,24
40,731,1,64,2,1,80,100,1175,15
41,460,1,70,1,1,80,60,975,10
42,153,1,73,2,2,60,70,1075,11
43,433,1,59,2,0,90,90,363,27
44,145,1,60,2,2,70,60,1075,1
45,583,1,68,1,1,60,70,1025,7
46,95,1,76,2,2,60,60,625,-24
47,303,1,74,1,0,90,70,463,30
48,519,1,63,1,1,80,70,1025,10
49,643,1,74,1,0,90,90,1425,2
50,765,1,50,2,1,90,100,1175,4
51,735,1,72,2,1,90,90,925,9
52,189,1,63,1,0,80,70,1500,0
53,53,1,68,1,0,90,100,1025,0
54,246,1,58,1,0,100,90,1175,7
55,689,1,59,1,1,90,80,1300,15
56,65,1,62,1,0,90,80,725,3
57,5,1,65,2,0,100,80,338,5
58,132,1,57,1,2,70,60,2450,18
59,687,1,58,2,1,80,80,1225,10
60,345,1,64,2,1,90,80,1075,-3
61,444,1,75,2,2,70,70,438,8
62,223,1,48,1,1,90,80,1300,68
63,175,1,73,1,1,80,100,1025,3
64,60,1,65,2,1,90,80,1025,0
65,163,1,69,1,1,80,60,1125,0
66,65,1,68,1,2,70,50,825,8
67,208,1,67,2,2,70,70,538,2
68,821,0,64,2,0,90,70,1025,3
69,428,1,68,1,0,100,80,1039,0
70,230,1,67,1,1,80,100,488,23
71,840,0,63,1,0,90,90,1175,-1
72,305,1,48,2,1,80,90,538,29
73,11,1,74,1,2,70,100,1175,0
74,132,1,40,1,1,80,80,1175,3
75,226,1,53,2,1,90,80,825,3
76,426,1,71,2,1,90,90,1075,19
77,705,1,51,2,0,100,80,1300,0
78,363,1,56,2,1,80,70,1225,-2
79,11,1,81,1,0,90,100,731,15
80,176,1,73,1,0,90,70,169,30
81,791,1,59,1,0,100,80,768,5
82,95,1,55,1,1,70,90,1500,15
83,196,0,42,1,1,80,80,1425,8
84,167,1,44,2,1,80,90,588,-1
85,806,0,44,1,1,80,80,1025,1
86,284,1,71,1,1,80,90,1100,14
87,641,1,62,2,1,80,80,1150,1
88,147,1,61,1,0,100,90,1175,4
89,740,0,44,2,1,90,80,588,39
90,163,1,72,1,2,70,70,910,2
91,655,1,63,1,0,100,90,975,-1
92,239,1,70,1,1,80,100,1025,23
93,88,1,66,1,1,90,80,875,8
94,245,1,57,2,1,80,60,280,14
95,588,0,69,2,0,100,90,96,13
96,30,1,72,1,2,80,60,288,7
97,179,1,69,1,1,80,80,363,25
98,310,1,71,1,1,90,100,993,0
99,477,1,64,1,1,90,100,910,0
100,166,1,70,2,0,90,70,750,10
101,559,0,58,2,0,100,100,710,15
102,450,1,69,2,1,80,90,1175,3
103,364,1,56,1,1,70,80,1175,4
104,107,1,63,1,1,90,70,975,0
105,177,1,59,1,2,50,70,860,32
106,156,1,66,1,1,80,90,875,14
107,529,0,54,2,1,80,100,975,-3
108,11,1,67,1,1,90,90,925,5
109,429,1,55,1,1,100,80,975,5
110,351,1,75,2,2,60,50,925,11
111,15,1,69,1,0,90,70,575,10
112,181,1,44,1,1,80,90,1175,5
113,283,1,80,1,1,80,100,1030,6
114,201,1,75,2,0,90,100,338,1
115,524,1,54,2,1,80,100,1175,15
116,13,1,76,1,2,70,70,413,20
117,212,1,49,1,2,70,60,675,20
118,524,1,68,1,2,60,70,1300,30
119,288,1,66,1,2,70,60,613,24
120,363,1,80,1,1,80,90,346,11
121,442,1,75,1,0,90,90,675,0
122,199,1,60,2,2,70,80,675,10
123,550,1,69,2,1,70,80,910,0
124,54,1,72,1,2,60,60,768,-3
125,558,1,70,1,0,90,90,1025,17
126,207,1,66,1,1,80,80,925,20
127,92,1,50,1,1,80,60,1075,13
128,60,1,64,1,1,80,90,993,0
129,551,0,77,2,2,80,60,750,28
130,543,0,48,2,0,90,60,910,4
131,293,1,59,2,1,80,80,925,52
132,202,1,53,1,1,80,80,1225,20
133,353,1,47,1,0,100,90,1225,5
134,511,0,55,2,1,80,70,1025,49
135,267,1,67,1,0,90,70,313,6
136,511,0,74,2,2,60,40,96,37
137,371,1,58,2,1,80,70,413,0
138,387,1,56,1,2,80,60,1075,3
139,457,1,54,1,1,90,90,975,-5
140,337,1,56,1,0,100,100,1500,15
141,201,1,73,2,2,70,60,1225,-16
142,404,0,74,1,1,80,70,413,38
143,222,1,76,1,2,70,70,1500,8
144,62,1,65,2,1,80,90,1075,0
145,458,0,57,1,1,80,100,513,30
146,356,0,53,2,1,90,90,1500,2
147,353,1,71,1,0,100,80,775,2
148,163,1,54,1,1,90,80,1225,13
149,31,1,82,1,0,100,90,413,27
150,340,1,59,2,0,100,90,280,0
151,229,1,70,1,1,70,60,1175,-2
152,444,0,60,1,0,90,100,1025,7
153,315,0,62,2,0,90,90,1025,0
154,182,1,53,2,1,80,60,825,4
155,156,1,55,1,2,70,30,1025,10
156,329,1,69,1,2,70,80,713,20
157,364,0,68,2,1,90,90,280,7
158,291,1,62,1,2,70,60,475,27
159,179,1,63,1,1,80,70,538,-2
160,376,0,56,2,1,80,90,825,17
161,384,0,62,2,0,90,90,588,8
162,268,1,44,2,1,90,100,2450,2
163,292,0,69,1,2,60,70,2450,36
164,142,1,63,1,1,90,80,875,2
165,413,0,64,1,1,80,70,413,16
166,266,0,57,2,0,90,90,1075,3
167,194,1,60,2,1,80,60,131,33
168,320,1,46,1,0,100,100,860,4
169,181,1,61,1,1,90,90,730,0
170,285,1,65,1,0,100,90,1025,0
171,301,0,61,1,1,90,100,825,2
172,348,1,58,2,0,90,80,1225,10
173,197,1,56,1,1,90,60,768,37
174,382,0,43,2,0,100,90,338,6
175,303,0,53,1,1,90,80,1225,12
176,296,0,59,2,1,80,100,1025,0
177,180,1,56,1,2,60,80,1225,-2
178,186,1,55,2,1,80,70,1125,11
179,145,1,53,2,1,80,90,588,13
180,269,0,74,2,0,100,100,588,0
181,300,0,60,1,0,100,100,975,5
182,284,0,39,1,0,100,90,1225,-5
183,350,1,66,2,0,90,100,1025,0
184,272,0,65,2,1,80,90,1300,-1
185,292,0,51,2,0,90,80,1225,0
186,332,0,45,2,0,90,100,975,5
187,285,1,72,2,2,70,90,463,20
188,259,0,58,1,0,90,80,1300,8
189,110,1,64,1,1,80,60,1025,12
190,286,1,53,1,0,90,90,1225,8
191,270,1,72,1,1,80,90,488,14
192,81,1,52,1,2,60,70,1075,8
193,131,1,50,1,1,90,80,513,0
194,225,0,64,1,1,90,80,825,33
195,269,1,71,1,1,90,90,1300,-2
196,225,0,70,1,0,100,100,1175,6
197,243,0,63,2,1,80,90,825,0
198,279,0,64,1,1,90,90,825,4
199,276,0,52,2,0,100,80,975,0
200,135,1,60,1,1,90,70,1275,0
201,79,1,64,2,1,90,90,488,37
202,59,1,73,1,1,60,60,2200,5
203,240,0,63,2,0,90,100,1025,0
204,202,0,50,2,0,100,100,635,1
205,235,0,63,2,0,100,90,413,0
206,105,1,62,1,2,60,70,1025,0
207,224,0,55,2,0,80,90,1025,23
208,239,1,50,2,2,60,60,1025,-3
209,237,0,69,1,1,80,70,413,17
210,173,0,59,2,1,90,80,1075,10
211,252,0,60,2,0,100,90,488,-2
212,221,0,67,1,1,80,70,413,23
213,185,0,69,1,1,90,70,1075,0
214,92,0,64,2,2,70,100,588,31
215,13,1,65,1,1,80,90,975,10
216,222,0,65,1,1,90,70,1025,18
217,192,0,41,2,1,90,80,1500,-10
218,183,1,76,1,2,80,60,825,7
219,211,0,70,2,2,70,30,131,3
220,175,0,57,2,0,80,80,725,11
221,197,0,67,1,1,80,90,1500,2
222,203,0,71,2,1,80,90,1025,0
223,116,1,76,1,1,80,80,413,0
224,188,0,77,1,1,80,60,413,3
225,191,0,39,1,0,90,90,2350,-5
226,105,0,75,2,2,60,70,1025,5
227,174,0,66,1,1,90,100,1075,1
228,177,0,58,2,1,80,90,1060,0
