...1,time,status,treatment,sex,age,bili,stage
1,400,1,1,1,21464,14.5,4
2,4500,0,1,1,20617,1.1,3
3,1012,1,1,0,25594,1.4,4
4,1925,1,1,1,19994,1.8,4
5,1504,0,2,1,13918,3.4,3
6,2503,1,2,1,24201,0.8,3
7,1832,0,2,1,20284,1,3
8,2466,1,2,1,19379,0.3,3
9,2400,1,1,1,15526,3.2,2
10,51,1,2,1,25772,12.6,4
11,3762,1,2,1,19619,1.4,4
12,304,1,2,1,21600,3.6,4
13,3577,0,2,1,16688,0.7,3
14,1217,1,2,0,20535,0.8,4
15,3584,1,1,1,23612,0.8,3
16,3672,0,2,1,14772,0.7,3
17,769,1,2,1,19060,2.7,4
18,131,1,1,1,19698,11.4,4
19,4232,0,1,1,18102,0.7,3
20,1356,1,2,1,21898,5.1,4
21,3445,0,2,0,23445,0.6,4
22,673,1,1,1,20555,3.4,4
23,264,1,2,1,20442,17.4,4
24,4079,1,1,0,16261,2.1,2
25,4127,0,2,1,16463,0.7,2
26,1444,1,2,1,19002,5.2,3
27,77,1,2,1,19884,21.6,4
28,549,1,2,1,16417,17.2,4
29,4509,0,2,1,23331,0.7,2
30,321,1,2,1,15116,3.6,4
31,3839,1,2,1,15177,4.7,2
32,4523,0,2,1,19722,1.8,4
33,3170,1,2,1,18731,0.8,3
34,3933,0,1,1,19015,0.8,2
35,2847,1,2,1,17758,1.2,3
36,3611,0,2,1,20604,0.3,2
37,223,1,1,1,22546,7.1,4
38,3244,1,2,1,13378,3.3,4
39,2297,1,1,1,20232,0.7,4
40,4467,0,1,1,17046,1.3,4
41,1350,1,1,1,12285,6.8,4
42,4453,0,2,1,12307,2.1,4
43,4556,0,1,1,17850,1.1,2
44,3428,1,2,1,13727,3.3,3
45,4025,0,2,1,15265,0.6,2
46,2256,1,1,1,16728,5.7,3
47,2576,0,2,1,17323,0.5,3
48,4427,0,2,0,17947,1.9,3
49,708,1,2,1,22336,0.8,4
50,2598,1,1,1,19544,1.1,4
51,3853,1,2,1,19025,0.8,2
52,2386,1,1,0,18460,6,1
53,1000,1,1,1,24621,2.6,4
54,1434,1,1,1,14317,1.3,4
55,1360,1,1,0,24020,1.8,3
56,1847,1,2,1,12279,1.1,2
57,3282,1,1,1,19567,2.3,3
58,4459,0,1,0,16279,0.7,1
59,2224,1,1,1,14754,0.8,3
60,4365,0,1,1,21324,0.9,3
61,4256,0,2,0,16034,0.6,1
62,3090,1,2,1,22173,1.3,4
63,859,1,2,1,17031,22.5,3
64,1487,1,2,1,22977,2.1,3
65,3992,0,1,1,14684,1.2,1
66,4191,1,1,0,16967,1.4,3
67,2769,1,2,1,18733,1.1,3
68,4039,0,1,1,11912,0.7,3
69,1170,1,1,1,18021,20,3
70,3458,0,1,1,20600,0.6,2
71,4196,0,2,1,17841,1.2,4
72,4184,0,2,1,11868,0.5,3
73,4190,0,2,1,14060,0.7,1
74,1827,1,1,1,18964,8.4,4
75,1191,1,1,1,15895,17.1,4
76,71,1,1,1,18972,12.2,4
77,326,1,2,1,18199,6.6,3
78,1690,1,1,1,17512,6.3,4
79,3707,0,1,1,16990,0.8,3
80,890,1,2,0,24622,7.2,4
81,2540,1,1,1,23107,14.4,4
82,3574,1,1,1,24585,4.5,3
83,4050,0,1,1,20459,1.3,4
84,4032,0,2,1,20392,0.4,3
85,3358,1,2,1,17246,2.1,4
86,1657,1,1,1,19270,5,3
87,198,1,1,1,13616,1.1,3
88,2452,0,2,1,15119,0.6,3
89,1741,1,1,1,19155,2,2
90,2689,1,1,0,12227,1.6,2
91,460,1,2,1,16658,5,4
92,388,1,1,1,28018,1.4,4
93,3913,0,1,1,13344,1.3,2
94,750,1,1,1,19693,3.2,4
95,130,1,2,1,16944,17.4,2
96,3850,0,1,1,17841,1,3
97,611,1,2,0,26259,2,3
98,3823,0,1,1,10550,1,1
99,3820,0,2,0,17703,1.8,2
100,552,1,2,0,18799,2.3,4
101,3581,0,2,1,16418,0.9,3
102,3099,0,1,1,20662,0.9,1
103,110,1,2,1,17884,2.5,4
104,3086,1,1,1,15712,1.1,2
105,3092,0,2,1,12433,1.1,3
106,3222,1,1,1,25023,2.1,2
107,3388,0,2,1,22836,0.6,1
108,2583,1,1,1,18393,0.4,2
109,2504,0,2,1,16094,0.5,3
110,2105,1,1,1,14212,1.9,3
111,2350,0,1,1,15031,5.5,3
112,3445,1,2,1,20256,2,4
113,980,1,1,1,18713,6.7,4
114,3395,1,2,0,19295,3.2,3
115,3422,0,2,1,15574,0.7,3
116,3336,0,1,1,22306,3,3
117,1083,1,1,1,18137,6.5,4
118,2288,1,1,1,17844,3.5,3
119,515,1,1,1,19817,0.6,3
120,2033,0,1,0,12839,3.5,3
121,191,1,2,0,24803,1.3,4
122,3297,0,1,1,20248,0.6,3
123,971,1,1,1,16736,5.1,4
124,3069,0,1,0,19318,0.6,4
125,2468,0,2,1,17233,1.3,4
126,824,1,1,1,19577,1.2,4
127,3255,0,2,1,16109,0.5,2
128,1037,1,1,1,15322,16.2,4
129,3239,0,1,1,23235,0.9,3
130,1413,1,2,1,16154,17.4,3
131,850,1,2,1,22646,2.8,4
132,2944,0,1,1,14812,1.9,3
133,2796,1,2,0,22881,1.5,4
134,3149,0,2,1,15463,0.7,2
135,3150,0,1,1,15694,0.4,2
136,3098,0,1,1,20440,0.8,2
137,2990,0,1,1,22960,1.1,2
138,1297,1,1,0,18719,7.3,3
139,2106,0,2,1,17080,1.1,4
140,3059,0,1,1,19751,1.1,3
141,3050,0,1,1,17180,0.9,2
142,2419,1,2,1,20354,1,2
143,786,1,2,1,16839,2.9,4
144,943,1,2,1,19098,28,3
145,2976,0,2,1,18701,0.7,3
146,2615,0,2,1,12369,1.2,3
147,2995,0,1,1,27398,1.2,2
148,1427,1,2,1,11273,7.2,3
149,762,1,1,0,22574,3,4
150,2891,0,2,1,12779,1,1
151,2870,0,1,1,20104,0.9,2
152,1152,1,1,0,25546,2.3,3
153,2863,0,1,1,18118,0.5,1
154,140,1,1,0,25340,2.4,3
155,2666,0,2,1,15909,0.6,4
156,853,1,2,1,21699,25.5,2
157,2835,0,2,1,17809,0.6,2
158,2475,0,1,1,13329,3.4,2
159,1536,1,2,0,16714,2.5,3
160,2772,0,2,1,20955,0.6,3
161,2797,0,2,1,15612,2.3,2
162,186,1,2,1,21483,3.2,4
163,2055,1,1,1,19540,0.3,3
164,264,1,2,1,15857,8.5,4
165,1077,1,1,0,19470,4,4
166,2721,0,2,1,15105,5.7,2
167,1682,1,1,0,22265,0.9,4
168,2713,0,2,1,17442,0.4,2
169,1212,1,2,1,12963,1.3,3
170,2692,0,1,1,17774,1.2,3
171,2574,0,1,1,19237,0.5,3
172,2301,0,2,1,18215,1.3,3
173,2657,0,1,1,11058,3,2
174,2644,0,1,1,20296,0.5,1
175,2624,0,2,1,19049,0.8,3
176,1492,1,1,1,15198,3.2,4
177,2609,0,2,1,20254,0.9,2
178,2580,0,1,1,25569,0.6,4
179,2573,0,2,1,16050,1.8,4
180,2563,0,2,1,15548,4.7,3
181,2556,0,1,1,16279,1.4,4
182,2555,0,1,1,20799,0.6,2
183,2241,0,2,1,14705,0.5,2
184,974,1,2,1,13736,11,3
185,2527,0,1,1,17664,0.8,3
186,1576,1,1,1,25873,2,3
187,733,1,2,1,13073,14,3
188,2332,0,1,1,22873,0.7,4
189,2456,0,2,1,18499,1.3,3
190,2504,0,1,1,19916,2.3,2
191,216,1,2,1,19246,24.5,4
192,2443,0,1,1,19256,0.9,4
193,797,1,2,1,20736,10.8,4
194,2449,0,1,1,16216,1.5,2
195,2330,0,1,1,10795,3.7,4
196,2363,0,1,1,20834,1.4,4
197,2365,0,1,1,16300,0.6,2
198,2357,0,2,1,13075,0.7,2
199,1592,0,1,1,14872,2.1,3
200,2318,0,2,1,11773,4.7,3
201,2294,0,2,1,15009,0.6,4
202,2272,0,1,1,22514,0.5,2
203,2221,0,2,1,13535,0.5,2
204,2090,1,2,1,22857,0.7,3
205,2081,1,1,1,17889,2.5,3
206,2255,0,1,1,22642,0.6,1
207,2171,0,1,1,26580,0.6,4
208,904,1,1,1,22388,3.9,4
209,2216,0,2,1,19221,0.7,2
210,2224,0,2,0,18176,0.9,2
211,2195,0,2,1,19327,1.3,3
212,2176,0,2,1,17263,1.2,3
213,2178,0,1,1,18337,0.5,3
214,1786,1,2,1,25329,0.9,3
215,1080,1,2,1,15037,5.9,3
216,2168,0,1,1,21610,0.5,3
217,790,1,2,1,13178,11.4,4
218,2170,0,1,1,12636,0.5,1
219,2157,0,2,1,15601,1.6,3
220,1235,1,1,1,23241,3.8,2
221,2050,0,2,1,20684,0.9,4
222,597,1,2,1,16898,4.5,3
223,334,1,1,1,22369,14.1,4
224,1945,0,1,1,14106,1,3
225,2022,0,1,1,14161,0.7,2
226,1978,0,2,1,20708,0.5,3
227,999,1,1,0,21532,2.3,2
228,1967,0,2,1,13486,0.7,3
229,348,1,1,1,22797,4.5,4
230,1979,0,2,1,12641,3.3,4
231,1165,1,2,1,21307,3.4,4
232,1951,0,1,1,18329,0.4,3
233,1932,0,1,1,15591,0.9,4
234,1776,0,2,1,12557,0.9,2
235,1882,0,2,1,12120,13,3
236,1908,0,1,1,14019,1.5,3
237,1882,0,1,1,21828,1.6,3
238,1874,0,2,1,24257,0.6,2
239,694,1,1,1,17090,0.8,4
240,1831,0,1,1,20483,0.4,3
241,837,0,2,1,15112,4.4,4
242,1810,0,1,1,23585,1.9,3
243,930,1,2,1,24650,8,4
244,1690,1,1,1,16374,3.9,3
245,1790,0,2,1,16718,0.6,3
246,1435,0,1,1,12035,2.1,4
247,732,0,1,1,15056,6.1,3
248,1785,0,2,1,20241,0.8,3
249,1783,0,1,1,17525,1.3,4
250,1769,0,2,1,14899,0.6,4
251,1457,0,1,1,20810,0.5,2
252,1770,0,1,1,25006,1.1,4
253,1765,0,1,0,28650,7.1,4
254,737,0,1,1,14558,3.1,3
255,1735,0,2,1,12897,0.7,3
256,1701,0,1,1,11485,1.1,3
257,1614,0,1,1,21281,0.5,2
258,1702,0,1,1,18806,1.1,1
259,1615,0,2,1,21904,3.1,3
260,1656,0,2,0,27220,5.6,4
261,1677,0,2,1,19126,3.2,3
262,1666,0,2,1,15628,2.8,3
263,1301,0,2,1,12738,1.1,4
264,1542,0,2,1,16122,3.4,3
265,1084,0,2,1,16941,3.5,4
266,1614,0,1,1,20567,0.5,3
267,179,1,1,1,25899,6.6,4
268,1191,1,1,1,20233,6.4,4
269,1363,0,2,1,16467,3.6,2
270,1568,0,1,1,9598,1,3
271,1569,0,2,1,18435,1,3
272,1525,0,1,1,14025,0.5,1
273,1558,0,2,1,17320,2.2,3
274,1447,0,1,1,17525,1.6,4
275,1349,0,1,1,13995,2.2,4
276,1481,0,1,1,18302,1,2
277,1434,0,2,1,12816,1,3
278,1420,0,2,1,11872,5.6,4
279,1433,0,2,1,20510,0.5,2
280,1412,0,1,1,16858,1.6,3
281,41,1,1,1,24064,17.9,4
282,1455,0,2,1,12398,1.3,4
283,1030,0,2,1,22960,1.1,4
284,1418,0,2,1,17738,1.3,3
285,1401,0,1,1,16929,0.8,1
286,1408,0,1,1,14191,2,3
287,1234,0,1,1,21421,6.4,4
288,1067,0,2,1,17874,8.7,2
289,799,1,1,0,24681,4,2
290,1363,0,1,1,24101,1.4,3
291,901,0,1,1,14939,3.2,4
292,1329,0,2,0,18352,8.6,3
293,1320,0,2,1,20891,8.5,4
294,1302,0,1,0,22111,6.6,4
295,877,0,1,0,12912,2.4,3
296,1321,0,2,1,11462,0.8,4
297,533,0,1,0,20449,1.2,4
298,1300,0,2,1,19258,1.1,3
299,1293,0,1,1,13913,2.4,3
300,207,1,2,1,21247,5.2,4
301,1295,0,2,1,16513,1,4
302,1271,0,1,1,13806,0.7,2
303,1250,0,2,1,22156,1,4
304,1230,0,1,1,12979,0.5,3
305,1216,0,2,1,15730,2.9,3
306,1216,0,2,1,20597,0.6,2
307,1149,0,2,1,11167,0.8,2
308,1153,0,1,1,22347,0.4,2
309,994,0,2,1,21294,0.4,2
310,939,0,1,1,22767,1.7,2
311,839,0,1,1,13879,2,2
312,788,0,2,1,12109,6.4,2
