    {
      "bytes": 20350,
      "description": "The present Dataset comprise a bibliographic review of sand fly species recorded in Acre State, Amazon region, Brazil.",
      "dialect": {
        "delimiter": ",",
        "header": true
      },
      "encoding": "utf-8",
      "format": "csv",
      "hash": "md5:e5f58257a732eec775e308ac15db400d",
      "licenses": [
        {
          "name": "CC0-1.0",
          "path": "https://creativecommons.org/publicdomain/zero/1.0/",
          "title": "CC0 1.0"
        }
      ],
      "mediatype": "text/csv",
      "name": "sand-fly-in-acre",
      "path": "https://ftp.cngb.org/pub/gigadb/pub/10.5524/102001_103000/102227/Table-2_Phlebotomine-sandfly-species-registered-by-municipality-in-Acre-State.csv",
      "profile": "tabular-data-resource",
      "schema": {
        "fields": [
          {
            "format": "default",
            "name": "County",
            "type": "string"
          },
          {
            "format": "default",
            "name": "Species Name",
            "type": "string"
          },
          {
            "constraints": {
              "pattern": "^\\(.*\\)$"
            },
            "format": "default",
            "name": "Author",
            "type": "string"
          }
        ],
        "missingValues": [
          "NA",
          ""
        ]
      },
      "title": "Phlebotomine sandfly species registered by municipality in Acre State"
    }
